verilog/sim.vcd
$date
	Thu Feb 19 22:36:29 2026
$end
$version
	Icarus Verilog
$end
$timescale
	100ps
$end
$scope module tb_pipelinepc $end
$var reg 1 ! clk $end
$var reg 1 " rstb $end
$scope module uut $end
$var wire 1 # actual_branch $end
$var wire 1 $ actual_mem_write $end
$var wire 1 % actual_reg_write $end
$var wire 9 & benq_addr [8:0] $end
$var wire 1 ! clk $end
$var wire 9 ' next_pc [8:0] $end
$var wire 1 " rstb $end
$var wire 1 ( sel_pc $end
$var wire 2 ) thread_id [1:0] $end
$var wire 1 * update_flags $end
$var wire 32 + wb_wd [31:0] $end
$var wire 4 , wb_wa [3:0] $end
$var wire 2 - wb_thread_id [1:0] $end
$var wire 1 . wb_reg_write $end
$var wire 32 / wb_read_data [31:0] $end
$var wire 1 0 wb_mem_to_reg $end
$var wire 32 1 wb_alu_result [31:0] $end
$var wire 32 2 shifted_r2data [31:0] $end
$var wire 1 3 s_bit $end
$var wire 9 4 pc_plus4 [8:0] $end
$var wire 32 5 mem_write_data [31:0] $end
$var wire 4 6 mem_wa [3:0] $end
$var wire 2 7 mem_thread_id [1:0] $end
$var wire 1 8 mem_reg_write $end
$var wire 32 9 mem_read_data [31:0] $end
$var wire 1 : mem_mem_write $end
$var wire 1 ; mem_mem_to_reg $end
$var wire 1 < mem_mem_read $end
$var wire 32 = mem_alu_result [31:0] $end
$var wire 1 > is_data_processing $end
$var wire 1 ? is_bx $end
$var wire 32 @ inst [31:0] $end
$var wire 4 A id_wa [3:0] $end
$var wire 2 B id_thread_id [1:0] $end
$var wire 4 C id_rg2 [3:0] $end
$var wire 1 D id_reg_write $end
$var wire 32 E id_r2data [31:0] $end
$var wire 32 F id_r1data [31:0] $end
$var wire 9 G id_pc [8:0] $end
$var wire 1 H id_mem_write $end
$var wire 1 I id_mem_to_reg $end
$var wire 1 J id_mem_read $end
$var wire 32 K id_instr [31:0] $end
$var wire 2 L id_imm_src [1:0] $end
$var wire 32 M id_imm_out [31:0] $end
$var wire 4 N id_cond [3:0] $end
$var wire 1 O id_branch $end
$var wire 1 P id_alu_src $end
$var wire 4 Q id_alu_ctrl [3:0] $end
$var wire 4 R ex_wa [3:0] $end
$var wire 2 S ex_thread_id [1:0] $end
$var wire 1 T ex_reg_write $end
$var wire 32 U ex_r2data [31:0] $end
$var wire 32 V ex_r1data [31:0] $end
$var wire 9 W ex_pc [8:0] $end
$var wire 1 X ex_mem_write $end
$var wire 1 Y ex_mem_to_reg $end
$var wire 1 Z ex_mem_read $end
$var wire 32 [ ex_instr [31:0] $end
$var wire 32 \ ex_imm_out [31:0] $end
$var wire 4 ] ex_cond [3:0] $end
$var wire 1 ^ ex_branch $end
$var wire 1 _ ex_alu_src $end
$var wire 32 ` ex_alu_result [31:0] $end
$var wire 4 a ex_alu_flags [3:0] $end
$var wire 4 b ex_alu_ctrl [3:0] $end
$var wire 9 c current_pc [8:0] $end
$var wire 4 d curr_flags [3:0] $end
$var wire 1 e condition_pass $end
$var wire 9 f branch_target_addr [8:0] $end
$var wire 9 g b_target_addr [8:0] $end
$var wire 32 h alu_operand_b [31:0] $end
$var reg 2 i thread_id_reg [1:0] $end
$scope module ALU $end
$var wire 32 j B [31:0] $end
$var wire 4 k alu_ctrl [3:0] $end
$var wire 32 l A [31:0] $end
$var reg 1 m carry_out $end
$var reg 4 n flags [3:0] $end
$var reg 1 o overflow $end
$var reg 32 p result [31:0] $end
$upscope $end
$scope module CPSR $end
$var wire 4 q alu_flags [3:0] $end
$var wire 1 ! clk $end
$var wire 4 r curr_flags [3:0] $end
$var wire 1 " rstb $end
$var wire 1 * update_en $end
$var wire 2 s thread_id [1:0] $end
$var integer 32 t i [31:0] $end
$upscope $end
$scope module CU $end
$var wire 4 u opcode [3:0] $end
$var wire 2 v op_mid [1:0] $end
$var wire 3 w op_high [2:0] $end
$var wire 1 x link_bit $end
$var wire 32 y instr [31:0] $end
$var wire 4 z cond_field [3:0] $end
$var wire 1 { U_bit $end
$var wire 1 | S_bit $end
$var wire 1 } L_bit $end
$var wire 1 ~ I_bit $end
$var reg 4 !" alu_ctrl [3:0] $end
$var reg 1 P alu_src $end
$var reg 1 O branch $end
$var reg 4 "" cond [3:0] $end
$var reg 2 #" imm_src [1:0] $end
$var reg 1 J mem_read $end
$var reg 1 I mem_to_reg $end
$var reg 1 H mem_write $end
$var reg 1 D reg_write $end
$upscope $end
$scope module CondCheck $end
$var wire 4 $" flags [3:0] $end
$var wire 4 %" cond [3:0] $end
$var wire 1 &" Z $end
$var wire 1 '" V $end
$var wire 1 (" N $end
$var wire 1 )" C $end
$var reg 1 e pass $end
$upscope $end
$scope module DMem $end
$var wire 1 ! clk $end
$var wire 32 *" write_data [31:0] $end
$var wire 8 +" word_addr [7:0] $end
$var wire 1 : mem_write $end
$var wire 1 < mem_read $end
$var wire 32 ," addr [31:0] $end
$var reg 32 -" read_data [31:0] $end
$upscope $end
$scope module EX_MEM $end
$var wire 1 ! clk $end
$var wire 32 ." ex_alu_result [31:0] $end
$var wire 1 $ ex_mem_write $end
$var wire 1 % ex_reg_write $end
$var wire 1 " rstb $end
$var wire 4 /" ex_wa [3:0] $end
$var wire 2 0" ex_thread_id [1:0] $end
$var wire 32 1" ex_r2data [31:0] $end
$var wire 1 Y ex_mem_to_reg $end
$var wire 1 Z ex_mem_read $end
$var reg 32 2" mem_alu_result [31:0] $end
$var reg 1 < mem_mem_read $end
$var reg 1 ; mem_mem_to_reg $end
$var reg 1 : mem_mem_write $end
$var reg 1 8 mem_reg_write $end
$var reg 2 3" mem_thread_id [1:0] $end
$var reg 4 4" mem_wa [3:0] $end
$var reg 32 5" mem_write_data [31:0] $end
$upscope $end
$scope module ID_EX $end
$var wire 1 ! clk $end
$var wire 1 6" en $end
$var wire 1 7" flush $end
$var wire 4 8" id_alu_ctrl [3:0] $end
$var wire 1 P id_alu_src $end
$var wire 1 O id_branch $end
$var wire 4 9" id_cond [3:0] $end
$var wire 1 J id_mem_read $end
$var wire 1 I id_mem_to_reg $end
$var wire 1 H id_mem_write $end
$var wire 1 D id_reg_write $end
$var wire 4 :" id_wa [3:0] $end
$var wire 1 " rstb $end
$var wire 2 ;" id_thread_id [1:0] $end
$var wire 32 <" id_r2data [31:0] $end
$var wire 32 =" id_r1data [31:0] $end
$var wire 9 >" id_pc [8:0] $end
$var wire 32 ?" id_instr [31:0] $end
$var wire 32 @" id_imm_out [31:0] $end
$var reg 4 A" ex_alu_ctrl [3:0] $end
$var reg 1 _ ex_alu_src $end
$var reg 1 ^ ex_branch $end
$var reg 4 B" ex_cond [3:0] $end
$var reg 32 C" ex_imm_out [31:0] $end
$var reg 32 D" ex_instr [31:0] $end
$var reg 1 Z ex_mem_read $end
$var reg 1 Y ex_mem_to_reg $end
$var reg 1 X ex_mem_write $end
$var reg 9 E" ex_pc [8:0] $end
$var reg 32 F" ex_r1data [31:0] $end
$var reg 32 G" ex_r2data [31:0] $end
$var reg 1 T ex_reg_write $end
$var reg 2 H" ex_thread_id [1:0] $end
$var reg 4 I" ex_wa [3:0] $end
$upscope $end
$scope module IF_ID $end
$var wire 1 ! clk $end
$var wire 1 J" en $end
$var wire 1 K" flush $end
$var wire 9 L" if_pc [8:0] $end
$var wire 2 M" if_thread_id [1:0] $end
$var wire 1 " rstb $end
$var wire 32 N" if_instr [31:0] $end
$var reg 32 O" id_instr [31:0] $end
$var reg 9 P" id_pc [8:0] $end
$var reg 2 Q" id_thread_id [1:0] $end
$upscope $end
$scope module IMEM $end
$var wire 1 ! clk $end
$var wire 9 R" addr [8:0] $end
$var reg 32 S" inst [31:0] $end
$upscope $end
$scope module ImmGen $end
$var wire 2 T" imm_src [1:0] $end
$var wire 32 U" instr [31:0] $end
$var wire 4 V" rotate [3:0] $end
$var wire 8 W" imm8 [7:0] $end
$var wire 24 X" imm24 [23:0] $end
$var wire 12 Y" imm12 [11:0] $end
$var reg 32 Z" imm_out [31:0] $end
$upscope $end
$scope module MEM_WB $end
$var wire 1 ! clk $end
$var wire 32 [" mem_alu_result [31:0] $end
$var wire 1 ; mem_mem_to_reg $end
$var wire 32 \" mem_read_data [31:0] $end
$var wire 1 8 mem_reg_write $end
$var wire 2 ]" mem_thread_id [1:0] $end
$var wire 4 ^" mem_wa [3:0] $end
$var wire 1 " rstb $end
$var reg 32 _" wb_alu_result [31:0] $end
$var reg 1 0 wb_mem_to_reg $end
$var reg 32 `" wb_read_data [31:0] $end
$var reg 1 . wb_reg_write $end
$var reg 2 a" wb_thread_id [1:0] $end
$var reg 4 b" wb_wa [3:0] $end
$upscope $end
$scope module PC $end
$var wire 1 ! clk $end
$var wire 1 # ex_branch $end
$var wire 9 c" ex_branch_target [8:0] $end
$var wire 2 d" ex_thread_id [1:0] $end
$var wire 9 e" next_pc [8:0] $end
$var wire 1 " rstb $end
$var wire 2 f" thread_id [1:0] $end
$var wire 1 g" wen $end
$var reg 9 h" current_pc [8:0] $end
$var integer 32 i" i [31:0] $end
$upscope $end
$scope module RF $end
$var wire 1 ! clk $end
$var wire 4 j" rg1 [3:0] $end
$var wire 4 k" rg2 [3:0] $end
$var wire 1 " rst $end
$var wire 2 l" thread [1:0] $end
$var wire 2 m" w_thread [1:0] $end
$var wire 4 n" wa [3:0] $end
$var wire 32 o" wd [31:0] $end
$var wire 1 . wen $end
$var wire 6 p" w1 [5:0] $end
$var wire 32 q" r2data [31:0] $end
$var wire 6 r" r2 [5:0] $end
$var wire 32 s" r1data [31:0] $end
$var wire 6 t" r1 [5:0] $end
$var integer 32 u" i [31:0] $end
$upscope $end
$scope module Shifter $end
$var wire 32 v" data_in [31:0] $end
$var wire 2 w" sh_type [1:0] $end
$var wire 5 x" shamt5 [4:0] $end
$var reg 32 y" data_out [31:0] $end
$upscope $end
$upscope $end
$upscope $end
$enddefinitions $end
#0
$dumpvars
bx y"
b0 x"
b0 w"
bx v"
b1000000 u"
b0 t"
b0 s"
b0 r"
b0 q"
b0 p"
b0 o"
b0 n"
b0 m"
b0 l"
b0 k"
b0 j"
b100 i"
b0 h"
1g"
b0 f"
b100 e"
b0 d"
bx c"
b0 b"
b0 a"
b0 `"
b0 _"
b0 ^"
b0 ]"
bx \"
b0 ["
b0 Z"
b0 Y"
b101000000000000000000000 X"
b0 W"
b0 V"
b11100001101000000000000000000000 U"
b0 T"
bx S"
b0 R"
b0 Q"
b0 P"
b11100001101000000000000000000000 O"
bx N"
b0 M"
b100 L"
0K"
1J"
bx I"
b0 H"
bx G"
bx F"
bx E"
b11100001101000000000000000000000 D"
bx C"
b1110 B"
b0 A"
b0 @"
b11100001101000000000000000000000 ?"
b0 >"
b0 ="
b0 <"
b0 ;"
b0 :"
b1110 9"
b10 8"
07"
16"
b0 5"
b0 4"
b0 3"
b0 2"
bx 1"
b0 0"
bx /"
bx ."
bx -"
b0 ,"
b0 +"
b0 *"
0)"
0("
0'"
0&"
b1110 %"
b0 $"
b0 #"
b1110 ""
b10 !"
0~
0}
0|
1{
b1110 z
b11100001101000000000000000000000 y
1x
b0 w
b0 v
b1101 u
b100 t
b0 s
b0 r
bx q
bx p
xo
bx n
xm
bx l
b0 k
bx j
b0 i
bx h
bx g
bx f
1e
b0 d
b0 c
b0 b
bx a
bx `
0_
0^
b1110 ]
bx \
b11100001101000000000000000000000 [
0Z
0Y
0X
bx W
bx V
bx U
0T
b0 S
bx R
b10 Q
0P
0O
b1110 N
b0 M
b0 L
b11100001101000000000000000000000 K
0J
0I
0H
b0 G
b0 F
b0 E
1D
b0 C
b0 B
b0 A
bx @
0?
1>
b0 =
0<
0;
0:
bx 9
08
b0 7
b0 6
b0 5
b100 4
03
bx 2
b0 1
00
b0 /
0.
b0 -
b0 ,
b0 +
0*
b0 )
0(
b100 '
bx &
0%
0$
0#
0"
0!
$end
#50
b11101001001011010100100000000000 @
b11101001001011010100100000000000 N"
b11101001001011010100100000000000 S"
b0 9
b0 -"
b0 \"
b100 t
b100 i"
1!
#100
0!
#150
b100 i"
b100 t
1!
#200
0!
1"
#250
b0 `
b0 p
b0 ."
b100 &
b100 c"
b100 f
b0 h
b0 j
bx +"
b100 g
b0 2
b0 y"
1%
b100 a
b100 n
b100 q
0o
0m
b100000000000 Y"
b1011010100100000000000 X"
b1000 V"
0{
b1001 u
b10 v
b100 w
b100 A
b100 :"
b1101 t"
b1101 j"
0D
b0 Q
b0 !"
b0 8"
b1 )
b1 M"
b1 f"
b1 i
bx 6
bx 4"
bx ^"
bx 5
bx *"
bx 5"
bx =
bx ,"
bx 2"
bx ["
b0 R
b0 /"
b0 I"
b0 \
b0 C"
b0 U
b0 1"
b0 G"
b0 v"
b0 V
b0 l
b0 F"
b0 W
b0 E"
1T
b10 b
b10 k
b10 A"
b11101001001011010100100000000000 K
b11101001001011010100100000000000 y
b11101001001011010100100000000000 ?"
b11101001001011010100100000000000 O"
b11101001001011010100100000000000 U"
b100 G
b100 >"
b100 P"
1!
#300
0!
#350
0>
b10000 x"
b1000 &
b1000 c"
b1000 f
0%
b0 +"
bx +
bx o"
b11101 t"
b10000 r"
b1 B
b1 ;"
b1 Q"
b1 l"
b100 R
b100 /"
b100 I"
b11101001001011010100100000000000 [
b11101001001011010100100000000000 D"
b1000 g
b100 W
b100 E"
0T
b0 b
b0 k
b0 A"
b0 6
b0 4"
b0 ^"
b0 5
b0 *"
b0 5"
b0 =
b0 ,"
b0 2"
b0 ["
18
b0xxxx p"
bx ,
bx b"
bx n"
bx 1
bx _"
b10 )
b10 M"
b10 f"
b10 i
1!
#400
0!
#450
b0 +
b0 o"
b11 )
b11 M"
b11 f"
b11 i
b0 p"
b0 ,
b0 b"
b0 n"
b0 1
b0 _"
1.
b100 6
b100 4"
b100 ^"
08
b1 S
b1 s
b1 0"
b1 H"
b1 d"
b101101 t"
b100000 r"
b10 B
b10 ;"
b10 Q"
b10 l"
1!
#500
0!
#550
b1000 '
b1000 L"
b1000 e"
b1000 4
b100 c
b100 R"
b100 h"
b111101 t"
b110000 r"
b11 B
b11 ;"
b11 Q"
b11 l"
b10 S
b10 s
b10 0"
b10 H"
b10 d"
b1 7
b1 3"
b1 ]"
b100 p"
b100 ,
b100 b"
b100 n"
0.
b0 )
b0 M"
b0 f"
b0 i
1!
#600
0!
#650
b1 )
b1 M"
b1 f"
b1 i
b10100 p"
b1 -
b1 a"
b1 m"
b10 7
b10 3"
b10 ]"
b11 S
b11 s
b11 0"
b11 H"
b11 d"
b1101 t"
b0 r"
b0 B
b0 ;"
b0 Q"
b0 l"
b1000 G
b1000 >"
b1000 P"
b11100010100011011011000000000100 @
b11100010100011011011000000000100 N"
b11100010100011011011000000000100 S"
1!
#700
0!
#750
b100 M
b100 @"
b100 Z"
1D
1P
b100 C
b100 k"
b100 Y"
b100011011011000000000100 X"
b100 W"
b0 V"
0x
1{
b100 u
1~
b0 v
b1 w
b1011 A
b1011 :"
b1100 &
b1100 c"
b1100 f
b11101 t"
b10100 r"
b1 B
b1 ;"
b1 Q"
b1 l"
b11100010100011011011000000000100 K
b11100010100011011011000000000100 y
b11100010100011011011000000000100 ?"
b11100010100011011011000000000100 O"
b11100010100011011011000000000100 U"
b0 S
b0 s
b0 0"
b0 H"
b0 d"
b1100 g
b1000 W
b1000 E"
b11 7
b11 3"
b11 ]"
b100100 p"
b10 -
b10 a"
b10 m"
b10 )
b10 M"
b10 f"
b10 i
1!
#800
0!
#850
b10000 &
b10000 c"
b10000 f
b0 a
b0 n
b0 q
b100 `
b100 p
b100 ."
b10000 g
1>
b0 x"
1%
b100 h
b100 j
b11 )
b11 M"
b11 f"
b11 i
b110100 p"
b11 -
b11 a"
b11 m"
b0 7
b0 3"
b0 ]"
b1 S
b1 s
b1 0"
b1 H"
b1 d"
b1011 R
b1011 /"
b1011 I"
b100 \
b100 C"
b11100010100011011011000000000100 [
b11100010100011011011000000000100 D"
1T
1_
b101101 t"
b100100 r"
b10 B
b10 ;"
b10 Q"
b10 l"
1!
#900
0!
#950
b1 +"
b1100 '
b1100 L"
b1100 e"
b1100 4
b1000 c
b1000 R"
b1000 h"
b111101 t"
b110100 r"
b11 B
b11 ;"
b11 Q"
b11 l"
b10 S
b10 s
b10 0"
b10 H"
b10 d"
b1 7
b1 3"
b1 ]"
b1011 6
b1011 4"
b1011 ^"
b100 =
b100 ,"
b100 2"
b100 ["
18
b100 p"
b0 -
b0 a"
b0 m"
b0 )
b0 M"
b0 f"
b0 i
1!
#1000
0!
#1050
b100 +
b100 o"
b1 )
b1 M"
b1 f"
b1 i
b1 -
b1 a"
b1 m"
b11011 p"
b1011 ,
b1011 b"
b1011 n"
b100 1
b100 _"
1.
b10 7
b10 3"
b10 ]"
b11 S
b11 s
b11 0"
b11 H"
b11 d"
b1101 t"
b100 r"
b0 B
b0 ;"
b0 Q"
b0 l"
b1100 G
b1100 >"
b1100 P"
b11100010010011011101000000111000 @
b11100010010011011101000000111000 N"
b11100010010011011101000000111000 S"
1!
#1100
0!
#1150
b111000 M
b111000 @"
b111000 Z"
b1 Q
b1 !"
b1 8"
b1000 C
b1000 k"
b111000 Y"
b10011011101000000111000 X"
b111000 W"
0{
b10 u
b1101 A
b1101 :"
1D
1P
b10100 &
b10100 c"
b10100 f
b11101 t"
b11000 r"
b1 B
b1 ;"
b1 Q"
b1 l"
b11100010010011011101000000111000 K
b11100010010011011101000000111000 y
b11100010010011011101000000111000 ?"
b11100010010011011101000000111000 O"
b11100010010011011101000000111000 U"
b0 S
b0 s
b0 0"
b0 H"
b0 d"
b10100 g
b1100 W
b1100 E"
b11 7
b11 3"
b11 ]"
b101011 p"
b10 -
b10 a"
b10 m"
b10 )
b10 M"
b10 f"
b10 i
1!
#1200
0!
#1250
b1001000 &
b1001000 c"
b1001000 f
b1001000 g
b111000 h
b111000 j
b1 w"
b1010 a
b1010 n
b1010 q
1m
b11111111111111111111111111001000 `
b11111111111111111111111111001000 p
b11111111111111111111111111001000 ."
b11 )
b11 M"
b11 f"
b11 i
b111011 p"
b11 -
b11 a"
b11 m"
b0 7
b0 3"
b0 ]"
b1 S
b1 s
b1 0"
b1 H"
b1 d"
b1101 R
b1101 /"
b1101 I"
b111000 \
b111000 C"
b11100010010011011101000000111000 [
b11100010010011011101000000111000 D"
b1 b
b1 k
b1 A"
b101101 t"
b101000 r"
b10 B
b10 ;"
b10 Q"
b10 l"
1!
#1300
0!
#1350
b11110010 +"
b10000 '
b10000 L"
b10000 e"
b10000 4
b1100 c
b1100 R"
b1100 h"
b111101 t"
b111000 r"
b11 B
b11 ;"
b11 Q"
b11 l"
b10 S
b10 s
b10 0"
b10 H"
b10 d"
b1 7
b1 3"
b1 ]"
b1101 6
b1101 4"
b1101 ^"
b11111111111111111111111111001000 =
b11111111111111111111111111001000 ,"
b11111111111111111111111111001000 2"
b11111111111111111111111111001000 ["
b1011 p"
b0 -
b0 a"
b0 m"
b0 )
b0 M"
b0 f"
b0 i
1!
#1400
0!
#1450
b11111111111111111111111111001000 +
b11111111111111111111111111001000 o"
b1 )
b1 M"
b1 f"
b1 i
b1 -
b1 a"
b1 m"
b11101 p"
b1101 ,
b1101 b"
b1101 n"
b11111111111111111111111111001000 1
b11111111111111111111111111001000 _"
b10 7
b10 3"
b10 ]"
b11 S
b11 s
b11 0"
b11 H"
b11 d"
b1101 t"
b1000 r"
b0 B
b0 ;"
b0 Q"
b0 l"
b10000 G
b10000 >"
b10000 P"
b11100101100111110011000100000100 @
b11100101100111110011000100000100 N"
b11100101100111110011000100000100 S"
1!
#1500
0!
#1550
b100000100 M
b100000100 @"
b100000100 Z"
1I
1J
b1 L
b1 #"
b1 T"
b100 C
b100 k"
b100000100 Y"
b100111110011000100000100 X"
b100 W"
b1 V"
1x
1{
1}
1|
b1100 u
0~
b1 v
b10 w
b11 A
b11 :"
b1111 j"
1D
b0 Q
b0 !"
b0 8"
1P
b1001100 &
b1001100 c"
b1001100 f
b11111 t"
b10100 r"
b1 B
b1 ;"
b1 Q"
b1 l"
b11100101100111110011000100000100 K
b11100101100111110011000100000100 y
b11100101100111110011000100000100 ?"
b11100101100111110011000100000100 O"
b11100101100111110011000100000100 U"
b0 S
b0 s
b0 0"
b0 H"
b0 d"
b1001100 g
b10000 W
b10000 E"
b11 7
b11 3"
b11 ]"
b101101 p"
b10 -
b10 a"
b10 m"
b10 )
b10 M"
b10 f"
b10 i
1!
#1600
0!
#1650
b100011000 &
b100011000 c"
b100011000 f
b100011000 g
b100000100 h
b100000100 j
13
0>
b0 w"
b10 x"
b0 a
b0 n
b0 q
b100000100 `
b100000100 p
b100000100 ."
0m
b11 )
b11 M"
b11 f"
b11 i
b111101 p"
b11 -
b11 a"
b11 m"
b0 7
b0 3"
b0 ]"
b1 S
b1 s
b1 0"
b1 H"
b1 d"
b11 R
b11 /"
b11 I"
b100000100 \
b100000100 C"
b11100101100111110011000100000100 [
b11100101100111110011000100000100 D"
1Y
1Z
b0 b
b0 k
b0 A"
b101111 t"
b100100 r"
b10 B
b10 ;"
b10 Q"
b10 l"
1!
#1700
0!
#1750
b1000001 +"
b10100 '
b10100 L"
b10100 e"
b10100 4
b10000 c
b10000 R"
b10000 h"
b111111 t"
b110100 r"
b11 B
b11 ;"
b11 Q"
b11 l"
b10 S
b10 s
b10 0"
b10 H"
b10 d"
b1 7
b1 3"
b1 ]"
b11 6
b11 4"
b11 ^"
b100000100 =
b100000100 ,"
b100000100 2"
b100000100 ["
1;
1<
b1101 p"
b0 -
b0 a"
b0 m"
b0 )
b0 M"
b0 f"
b0 i
1!
#1800
0!
#1850
b0 +
b0 o"
b1 )
b1 M"
b1 f"
b1 i
b1 -
b1 a"
b1 m"
b10011 p"
b11 ,
b11 b"
b11 n"
b100000100 1
b100000100 _"
10
b10 7
b10 3"
b10 ]"
b11 S
b11 s
b11 0"
b11 H"
b11 d"
b1111 t"
b100 r"
b0 B
b0 ;"
b0 Q"
b0 l"
b10100 G
b10100 >"
b10100 P"
b11100010010010111100000000111000 @
b11100010010010111100000000111000 N"
b11100010010010111100000000111000 S"
bx 9
bx -"
bx \"
1!
#1900
0!
#1950
b1 Q
b1 !"
b1 8"
b100 F
b100 ="
b100 s"
b1000 C
b1000 k"
b111000 M
b111000 @"
b111000 Z"
b111000 Y"
b10010111100000000111000 X"
b111000 W"
b0 V"
0x
0{
0}
0|
b10 u
1~
b0 v
b1 w
b1100 A
b1100 :"
b1011 j"
0I
1D
0J
b0 L
b0 #"
b0 T"
1P
b100011100 &
b100011100 c"
b100011100 f
bx +
bx o"
b11011 t"
b11000 r"
b1 B
b1 ;"
b1 Q"
b1 l"
b11100010010010111100000000111000 K
b11100010010010111100000000111000 y
b11100010010010111100000000111000 ?"
b11100010010010111100000000111000 O"
b11100010010010111100000000111000 U"
b0 S
b0 s
b0 0"
b0 H"
b0 d"
b100011100 g
b10100 W
b10100 E"
b11 7
b11 3"
b11 ]"
b100011 p"
b10 -
b10 a"
b10 m"
bx /
bx `"
b10 )
b10 M"
b10 f"
b10 i
1!
#2000
0!
#2050
b1010000 &
b1010000 c"
b1010000 f
b1010000 g
b111000 h
b111000 j
03
1>
b1 w"
b0 x"
b1010 a
b1010 n
b1010 q
1m
b11111111111111111111111111001100 `
b11111111111111111111111111001100 p
b11111111111111111111111111001100 ."
b11 )
b11 M"
b11 f"
b11 i
b110011 p"
b11 -
b11 a"
b11 m"
b0 7
b0 3"
b0 ]"
b1 S
b1 s
b1 0"
b1 H"
b1 d"
b1100 R
b1100 /"
b1100 I"
b111000 \
b111000 C"
b100 V
b100 l
b100 F"
b11100010010010111100000000111000 [
b11100010010010111100000000111000 D"
0Y
0Z
b1 b
b1 k
b1 A"
b101011 t"
b101000 r"
b10 B
b10 ;"
b10 Q"
b10 l"
1!
#2100
0!
#2150
b11110011 +"
b11000 '
b11000 L"
b11000 e"
b11000 4
b10100 c
b10100 R"
b10100 h"
b111011 t"
b111000 r"
b11 B
b11 ;"
b11 Q"
b11 l"
b10 S
b10 s
b10 0"
b10 H"
b10 d"
b1 7
b1 3"
b1 ]"
b1100 6
b1100 4"
b1100 ^"
b11111111111111111111111111001100 =
b11111111111111111111111111001100 ,"
b11111111111111111111111111001100 2"
b11111111111111111111111111001100 ["
0;
0<
b11 p"
b0 -
b0 a"
b0 m"
b0 )
b0 M"
b0 f"
b0 i
1!
#2200
0!
#2250
b11111111111111111111111111001100 +
b11111111111111111111111111001100 o"
b1 )
b1 M"
b1 f"
b1 i
b1 -
b1 a"
b1 m"
b11100 p"
b1100 ,
b1100 b"
b1100 n"
b11111111111111111111111111001100 1
b11111111111111111111111111001100 _"
00
b10 7
b10 3"
b10 ]"
b11 S
b11 s
b11 0"
b11 H"
b11 d"
b1011 t"
b1000 r"
b0 B
b0 ;"
b0 Q"
b0 l"
b11000 G
b11000 >"
b11000 P"
b11100001101000001110000000000011 @
b11100001101000001110000000000011 N"
b11100001101000001110000000000011 S"
b0 9
b0 -"
b0 \"
1!
#2300
0!
#2350
b11 M
b11 @"
b11 Z"
b0 F
b0 ="
b0 s"
b11 C
b11 k"
b11 Y"
b101000001110000000000011 X"
b11 W"
1x
1{
b1101 u
0~
b0 w
b1110 A
b1110 :"
b0 j"
1D
b10 Q
b10 !"
b10 8"
0P
b1010100 &
b1010100 c"
b1010100 f
b10000 t"
b10011 r"
b1 B
b1 ;"
b1 Q"
b1 l"
b11100001101000001110000000000011 K
b11100001101000001110000000000011 y
b11100001101000001110000000000011 ?"
b11100001101000001110000000000011 O"
b11100001101000001110000000000011 U"
b0 S
b0 s
b0 0"
b0 H"
b0 d"
b1010100 g
b11000 W
b11000 E"
b11 7
b11 3"
b11 ]"
b101100 p"
b10 -
b10 a"
b10 m"
b0 /
b0 `"
b10 )
b10 M"
b10 f"
b10 i
1!
#2400
0!
#2450
b11111 &
b11111 c"
b11111 f
b11111 g
b0 w"
b100 a
b100 n
b100 q
b0 `
b0 p
b0 ."
0m
b0 h
b0 j
bx E
bx <"
bx q"
b11 )
b11 M"
b11 f"
b11 i
b111100 p"
b11 -
b11 a"
b11 m"
b0 7
b0 3"
b0 ]"
b1 S
b1 s
b1 0"
b1 H"
b1 d"
b1110 R
b1110 /"
b1110 I"
b11 \
b11 C"
b0 V
b0 l
b0 F"
b11100001101000001110000000000011 [
b11100001101000001110000000000011 D"
b10 b
b10 k
b10 A"
0_
b100000 t"
b100011 r"
b10 B
b10 ;"
b10 Q"
b10 l"
1!
#2500
0!
#2550
bx00 a
bx00 n
bx00 q
bx `
bx p
bx ."
bx h
bx j
bx 2
bx y"
b0 +"
b11100 '
b11100 L"
b11100 e"
b11100 4
b11000 c
b11000 R"
b11000 h"
b110000 t"
b110011 r"
b11 B
b11 ;"
b11 Q"
b11 l"
b10 S
b10 s
b10 0"
b10 H"
b10 d"
bx U
bx 1"
bx G"
bx v"
b1 7
b1 3"
b1 ]"
b1110 6
b1110 4"
b1110 ^"
b0 =
b0 ,"
b0 2"
b0 ["
b1100 p"
b0 -
b0 a"
b0 m"
b0 )
b0 M"
b0 f"
b0 i
1!
#2600
0!
#2650
b0 +
b0 o"
bx +"
b1 )
b1 M"
b1 f"
b1 i
b1 -
b1 a"
b1 m"
b11110 p"
b1110 ,
b1110 b"
b1110 n"
b0 1
b0 _"
b10 7
b10 3"
b10 ]"
bx 5
bx *"
bx 5"
bx =
bx ,"
bx 2"
bx ["
b11 S
b11 s
b11 0"
b11 H"
b11 d"
b0 t"
b11 r"
b0 B
b0 ;"
b0 Q"
b0 l"
b11100 G
b11100 >"
b11100 P"
b11101000101111100000000000001111 @
b11101000101111100000000000001111 N"
b11101000101111100000000000001111 S"
1!
#2700
0!
#2750
b1111 M
b1111 @"
b1111 Z"
b1111 C
b1111 k"
b0 E
b0 <"
b0 q"
b1111 Y"
b101111100000000000001111 X"
b1111 W"
0x
1}
1|
b101 u
b10 v
b100 w
b0 A
b0 :"
b1110 j"
0D
b0 Q
b0 !"
b0 8"
b100011 &
b100011 c"
b100011 f
bx +
bx o"
b11110 t"
b11111 r"
b1 B
b1 ;"
b1 Q"
b1 l"
b11101000101111100000000000001111 K
b11101000101111100000000000001111 y
b11101000101111100000000000001111 ?"
b11101000101111100000000000001111 O"
b11101000101111100000000000001111 U"
b0 S
b0 s
b0 0"
b0 H"
b0 d"
b100011 g
b11100 W
b11100 E"
b11 7
b11 3"
b11 ]"
b101110 p"
b10 -
b10 a"
b10 m"
bx 1
bx _"
b10 )
b10 M"
b10 f"
b10 i
1!
#2800
0!
#2850
b0 `
b0 p
b0 ."
b101111 &
b101111 c"
b101111 f
b0 h
b0 j
b101111 g
b0 2
b0 y"
13
0>
0%
b100 a
b100 n
b100 q
0o
0m
bx F
bx ="
bx s"
b11 )
b11 M"
b11 f"
b11 i
b111110 p"
b11 -
b11 a"
b11 m"
b0 7
b0 3"
b0 ]"
b1 S
b1 s
b1 0"
b1 H"
b1 d"
b0 R
b0 /"
b0 I"
b1111 \
b1111 C"
b0 U
b0 1"
b0 G"
b0 v"
b11101000101111100000000000001111 [
b11101000101111100000000000001111 D"
0T
b0 b
b0 k
b0 A"
b101110 t"
b101111 r"
b10 B
b10 ;"
b10 Q"
b10 l"
1!
#2900
0!
#2950
bx a
bx n
bx q
xo
xm
bx `
bx p
bx ."
b0 +"
b100000 '
b100000 L"
b100000 e"
b100000 4
b11100 c
b11100 R"
b11100 h"
b111110 t"
b111111 r"
b11 B
b11 ;"
b11 Q"
b11 l"
b10 S
b10 s
b10 0"
b10 H"
b10 d"
bx V
bx l
bx F"
b1 7
b1 3"
b1 ]"
b0 6
b0 4"
b0 ^"
b0 5
b0 *"
b0 5"
b0 =
b0 ,"
b0 2"
b0 ["
08
b1110 p"
b0 -
b0 a"
b0 m"
b0 )
b0 M"
b0 f"
b0 i
1!
#3000
0!
